waveform.vcd
$date
	Thu Sep  5 19:14:26 2024
$end
$version
	Icarus Verilog
$end
$timescale
	1ps
$end
$scope module pfcache_tb $end
$scope module uut $end
$var wire 1 ! i_clear_cache $end
$var wire 1 " i_clk $end
$var wire 1 # i_new_pc $end
$var wire 32 $ i_pc [31:0] $end
$var wire 1 % i_ready $end
$var wire 1 & i_reset $end
$var wire 1 ' i_wb_ack $end
$var wire 32 ( i_wb_data [31:0] $end
$var wire 1 ) i_wb_err $end
$var wire 1 * i_wb_stall $end
$var wire 32 + o_pc [31:0] $end
$var wire 32 , o_wb_data [31:0] $end
$var wire 1 - o_wb_we $end
$var wire 1 . w_advance $end
$var wire 1 / w_invalidate_result $end
$var wire 1 0 w_v_from_last $end
$var wire 1 1 w_v_from_pc $end
$var wire 20 2 tag_lookup [29:10] $end
$var wire 1 3 r_v $end
$var wire 20 4 pc_tag [29:10] $end
$var wire 2 5 pc_line [1:0] $end
$var wire 32 6 o_insn [31:0] $end
$var wire 20 7 lasttag [29:10] $end
$var wire 2 8 last_line [1:0] $end
$var wire 32 9 cache_word [31:0] $end
$var reg 1 : bus_abort $end
$var reg 2 ; delay [1:0] $end
$var reg 20 < illegal_cache [29:10] $end
$var reg 1 = illegal_valid $end
$var reg 1 > isrc $end
$var reg 1 ? last_ack $end
$var reg 1 @ last_addr $end
$var reg 20 A last_tag_lookup [29:10] $end
$var reg 32 B lastpc [31:0] $end
$var reg 1 C needload $end
$var reg 1 D o_illegal $end
$var reg 1 E o_valid $end
$var reg 30 F o_wb_addr [29:0] $end
$var reg 1 G o_wb_cyc $end
$var reg 1 H o_wb_stb $end
$var reg 20 I pc_tag_lookup [29:10] $end
$var reg 32 J r_last_cache [31:0] $end
$var reg 32 K r_pc [31:0] $end
$var reg 32 L r_pc_cache [31:0] $end
$var reg 1 M r_v_from_last $end
$var reg 1 N r_v_from_pc $end
$var reg 1 O rvsrc $end
$var reg 2 P saddr [1:0] $end
$var reg 1 Q svmask $end
$var reg 4 R valid_mask [3:0] $end
$var reg 12 S wraddr [11:0] $end
$scope begin GEN_INSN $end
$upscope $end
$upscope $end
$upscope $end
$enddefinitions $end
#0
$dumpvars
b0 S
b0 R
0Q
bx P
xO
0N
0M
bx L
b0 K
bx J
bx I
0H
0G
b0 F
0E
0D
0C
b0 B
bx A
0@
0?
x>
0=
b0 <
b11 ;
0:
bx 9
b0 8
b0 7
bx 6
b0 5
b0 4
03
bx 2
01
00
x/
0.
0-
b0 ,
b0 +
0*
z)
b0 (
z'
z&
0%
b0 $
0#
0"
0!
$end
#5000
bx00 2
0>
bx00 I
bx00 A
b10 ;
0O
1"
#10000
0"
#15000
b1 ;
1"
#20000
0"
#25000
b0 ;
1"
#30000
0"
#35000
1C
1"
#40000
0"
#45000
1H
1G
1"
#50000
0"
#55000
b1 F
0C
b10 ;
1"
#60000
0"
#65000
b0 6
b0 9
b0 J
b0 L
b10 F
1"
#70000
0"
#75000
b11 F
1"
#80000
0"
#85000
b100 F
1"
#90000
0"
#95000
b101 F
1"
#100000
0"
#105000
b110 F
1"
#110000
0"
#115000
b111 F
1"
#120000
0"
#125000
b1000 F
1"
#130000
0"
#135000
b1001 F
1"
#140000
0"
#145000
b1010 F
1"
#150000
0"
#155000
b1011 F
1"
#160000
0"
#165000
b1100 F
1"
#170000
0"
#175000
b1101 F
1"
#180000
0"
#185000
b1110 F
1"
#190000
0"
#195000
b1111 F
1"
#200000
0"
#205000
b10000 F
1"
#210000
0"
#215000
b10001 F
1"
#220000
0"
#225000
b10010 F
1"
#230000
0"
#235000
b10011 F
1"
#240000
0"
#245000
b10100 F
1"
#250000
0"
#255000
b10101 F
1"
#260000
0"
#265000
b10110 F
1"
#270000
0"
#275000
b10111 F
1"
#280000
0"
#285000
b11000 F
1"
#290000
0"
#295000
b11001 F
1"
#300000
0"
#305000
b11010 F
1"
#310000
0"
#315000
b11011 F
1"
#320000
0"
#325000
b11100 F
1"
#330000
0"
#335000
b11101 F
1"
#340000
0"
#345000
b11110 F
1"
#350000
0"
#355000
b11111 F
1"
#360000
0"
#365000
b100000 F
1"
#370000
0"
#375000
b100001 F
1"
#380000
0"
#385000
b100010 F
1"
#390000
0"
#395000
b100011 F
1"
#400000
0"
#405000
b100100 F
1"
#410000
0"
#415000
b100101 F
1"
#420000
0"
#425000
b100110 F
1"
#430000
0"
#435000
b100111 F
1"
#440000
0"
#445000
b101000 F
1"
#450000
0"
#455000
b101001 F
1"
#460000
0"
#465000
b101010 F
1"
#470000
0"
#475000
b101011 F
1"
#480000
0"
#485000
b101100 F
1"
#490000
0"
#495000
b101101 F
1"
#500000
0"
#505000
b101110 F
1"
#510000
0"
#515000
b101111 F
1"
#520000
0"
#525000
b110000 F
1"
#530000
0"
#535000
b110001 F
1"
#540000
0"
#545000
b110010 F
1"
#550000
0"
#555000
b110011 F
1"
#560000
0"
#565000
b110100 F
1"
#570000
0"
#575000
b110101 F
1"
#580000
0"
#585000
b110110 F
1"
#590000
0"
#595000
b110111 F
1"
#600000
0"
#605000
b111000 F
1"
#610000
0"
#615000
b111001 F
1"
#620000
0"
#625000
b111010 F
1"
#630000
0"
#635000
b111011 F
1"
#640000
0"
#645000
b111100 F
1"
#650000
0"
#655000
b111101 F
1"
#660000
0"
#665000
b111110 F
1"
#670000
0"
#675000
b111111 F
1"
#680000
0"
#685000
b1000000 F
1"
#690000
0"
#695000
b1000001 F
1"
#700000
0"
#705000
b1000010 F
1"
#710000
0"
#715000
b1000011 F
1"
#720000
0"
#725000
b1000100 F
1"
#730000
0"
#735000
b1000101 F
1"
#740000
0"
#745000
b1000110 F
1"
#750000
0"
#755000
b1000111 F
1"
#760000
0"
#765000
b1001000 F
1"
#770000
0"
#775000
b1001001 F
1"
#780000
0"
#785000
b1001010 F
1"
#790000
0"
#795000
b1001011 F
1"
#800000
0"
#805000
b1001100 F
1"
#810000
0"
#815000
b1001101 F
1"
#820000
0"
#825000
b1001110 F
1"
#830000
0"
#835000
b1001111 F
1"
#840000
0"
#845000
b1010000 F
1"
#850000
0"
#855000
b1010001 F
1"
#860000
0"
#865000
b1010010 F
1"
#870000
0"
#875000
b1010011 F
1"
#880000
0"
#885000
b1010100 F
1"
#890000
0"
#895000
b1010101 F
1"
#900000
0"
#905000
b1010110 F
1"
#910000
0"
#915000
b1010111 F
1"
#920000
0"
#925000
b1011000 F
1"
#930000
0"
#935000
b1011001 F
1"
#940000
0"
#945000
b1011010 F
1"
#950000
0"
#955000
b1011011 F
1"
#960000
0"
#965000
b1011100 F
1"
#970000
0"
#975000
b1011101 F
1"
#980000
0"
#985000
b1011110 F
1"
#990000
0"
#995000
b1011111 F
1"
#1000000
0"
#1005000
b1100000 F
1"
#1010000
0"
#1015000
b1100001 F
1"
#1020000
0"
#1025000
b1100010 F
1"
#1030000
0"
#1035000
b1100011 F
1"
#1040000
0"
#1045000
b1100100 F
1"
#1050000
0"
#1055000
b1100101 F
1"
#1060000
0"
#1065000
b1100110 F
1"
#1070000
0"
#1075000
b1100111 F
1"
#1080000
0"
#1085000
b1101000 F
1"
#1090000
0"
#1095000
b1101001 F
1"
